^C:\USERS\THOMAS DENDLE\DOCUMENTS\UNI\CREATING VIRTUAL WORLDS\GRAPHICSTEMPLATE\CCAMERA.CPP
/c /ZI /JMC /nologo /W3 /WX- /diagnostics:column /sdl /Od /D _DEBUG /D _CONSOLE /D _UNICODE /D UNICODE /Gm- /EHsc /RTC1 /MDd /GS /fp:precise /permissive- /Zc:wchar_t /Zc:forScope /Zc:inline /Fo"X64\DEBUG\\" /Fd"X64\DEBUG\VC142.PDB" /Gd /TP /FC C:\USERS\THOMAS DENDLE\DOCUMENTS\UNI\CREATING VIRTUAL WORLDS\GRAPHICSTEMPLATE\CCAMERA.CPP
^C:\USERS\THOMAS DENDLE\DOCUMENTS\UNI\CREATING VIRTUAL WORLDS\GRAPHICSTEMPLATE\CLIGHT.CPP
/c /ZI /JMC /nologo /W3 /WX- /diagnostics:column /sdl /Od /D _DEBUG /D _CONSOLE /D _UNICODE /D UNICODE /Gm- /EHsc /RTC1 /MDd /GS /fp:precise /permissive- /Zc:wchar_t /Zc:forScope /Zc:inline /Fo"X64\DEBUG\\" /Fd"X64\DEBUG\VC142.PDB" /Gd /TP /FC C:\USERS\THOMAS DENDLE\DOCUMENTS\UNI\CREATING VIRTUAL WORLDS\GRAPHICSTEMPLATE\CLIGHT.CPP
^C:\USERS\THOMAS DENDLE\DOCUMENTS\UNI\CREATING VIRTUAL WORLDS\GRAPHICSTEMPLATE\CSHADER.CPP
/c /ZI /JMC /nologo /W3 /WX- /diagnostics:column /sdl /Od /D _DEBUG /D _CONSOLE /D _UNICODE /D UNICODE /Gm- /EHsc /RTC1 /MDd /GS /fp:precise /permissive- /Zc:wchar_t /Zc:forScope /Zc:inline /Fo"X64\DEBUG\\" /Fd"X64\DEBUG\VC142.PDB" /Gd /TP /FC C:\USERS\THOMAS DENDLE\DOCUMENTS\UNI\CREATING VIRTUAL WORLDS\GRAPHICSTEMPLATE\CSHADER.CPP
^C:\USERS\THOMAS DENDLE\DOCUMENTS\UNI\CREATING VIRTUAL WORLDS\GRAPHICSTEMPLATE\CTEXTURE.CPP
/c /ZI /JMC /nologo /W3 /WX- /diagnostics:column /sdl /Od /D _DEBUG /D _CONSOLE /D _UNICODE /D UNICODE /Gm- /EHsc /RTC1 /MDd /GS /fp:precise /permissive- /Zc:wchar_t /Zc:forScope /Zc:inline /Fo"X64\DEBUG\\" /Fd"X64\DEBUG\VC142.PDB" /Gd /TP /FC C:\USERS\THOMAS DENDLE\DOCUMENTS\UNI\CREATING VIRTUAL WORLDS\GRAPHICSTEMPLATE\CTEXTURE.CPP
^C:\USERS\THOMAS DENDLE\DOCUMENTS\UNI\CREATING VIRTUAL WORLDS\GRAPHICSTEMPLATE\CTRANSFORM.CPP
/c /ZI /JMC /nologo /W3 /WX- /diagnostics:column /sdl /Od /D _DEBUG /D _CONSOLE /D _UNICODE /D UNICODE /Gm- /EHsc /RTC1 /MDd /GS /fp:precise /permissive- /Zc:wchar_t /Zc:forScope /Zc:inline /Fo"X64\DEBUG\\" /Fd"X64\DEBUG\VC142.PDB" /Gd /TP /FC C:\USERS\THOMAS DENDLE\DOCUMENTS\UNI\CREATING VIRTUAL WORLDS\GRAPHICSTEMPLATE\CTRANSFORM.CPP
^C:\USERS\THOMAS DENDLE\DOCUMENTS\UNI\CREATING VIRTUAL WORLDS\GRAPHICSTEMPLATE\CORE.CPP
/c /ZI /JMC /nologo /W3 /WX- /diagnostics:column /sdl /Od /D _DEBUG /D _CONSOLE /D _UNICODE /D UNICODE /Gm- /EHsc /RTC1 /MDd /GS /fp:precise /permissive- /Zc:wchar_t /Zc:forScope /Zc:inline /Fo"X64\DEBUG\\" /Fd"X64\DEBUG\VC142.PDB" /Gd /TP /FC C:\USERS\THOMAS DENDLE\DOCUMENTS\UNI\CREATING VIRTUAL WORLDS\GRAPHICSTEMPLATE\CORE.CPP
^C:\USERS\THOMAS DENDLE\DOCUMENTS\UNI\CREATING VIRTUAL WORLDS\GRAPHICSTEMPLATE\MAIN.CPP
/c /ZI /JMC /nologo /W3 /WX- /diagnostics:column /sdl /Od /D _DEBUG /D _CONSOLE /D _UNICODE /D UNICODE /Gm- /EHsc /RTC1 /MDd /GS /fp:precise /permissive- /Zc:wchar_t /Zc:forScope /Zc:inline /Fo"X64\DEBUG\\" /Fd"X64\DEBUG\VC142.PDB" /Gd /TP /FC C:\USERS\THOMAS DENDLE\DOCUMENTS\UNI\CREATING VIRTUAL WORLDS\GRAPHICSTEMPLATE\MAIN.CPP
^C:\USERS\THOMAS DENDLE\DOCUMENTS\UNI\CREATING VIRTUAL WORLDS\GRAPHICSTEMPLATE\TEXTFILE.CPP
/c /ZI /JMC /nologo /W3 /WX- /diagnostics:column /sdl /Od /D _DEBUG /D _CONSOLE /D _UNICODE /D UNICODE /Gm- /EHsc /RTC1 /MDd /GS /fp:precise /permissive- /Zc:wchar_t /Zc:forScope /Zc:inline /Fo"X64\DEBUG\\" /Fd"X64\DEBUG\VC142.PDB" /Gd /TP /FC C:\USERS\THOMAS DENDLE\DOCUMENTS\UNI\CREATING VIRTUAL WORLDS\GRAPHICSTEMPLATE\TEXTFILE.CPP
^C:\USERS\THOMAS DENDLE\DOCUMENTS\UNI\CREATING VIRTUAL WORLDS\GRAPHICSTEMPLATE\CSCENE.CPP
/c /ZI /JMC /nologo /W3 /WX- /diagnostics:column /sdl /Od /D _DEBUG /D _CONSOLE /D _UNICODE /D UNICODE /Gm- /EHsc /RTC1 /MDd /GS /fp:precise /permissive- /Zc:wchar_t /Zc:forScope /Zc:inline /Fo"X64\DEBUG\\" /Fd"X64\DEBUG\VC142.PDB" /Gd /TP /FC C:\USERS\THOMAS DENDLE\DOCUMENTS\UNI\CREATING VIRTUAL WORLDS\GRAPHICSTEMPLATE\CSCENE.CPP
^C:\USERS\THOMAS DENDLE\DOCUMENTS\UNI\CREATING VIRTUAL WORLDS\GRAPHICSTEMPLATE\CSKYBOX.CPP
/c /ZI /JMC /nologo /W3 /WX- /diagnostics:column /sdl /Od /D _DEBUG /D _CONSOLE /D _UNICODE /D UNICODE /Gm- /EHsc /RTC1 /MDd /GS /fp:precise /permissive- /Zc:wchar_t /Zc:forScope /Zc:inline /Fo"X64\DEBUG\\" /Fd"X64\DEBUG\VC142.PDB" /Gd /TP /FC C:\USERS\THOMAS DENDLE\DOCUMENTS\UNI\CREATING VIRTUAL WORLDS\GRAPHICSTEMPLATE\CSKYBOX.CPP
^C:\USERS\THOMAS DENDLE\DOCUMENTS\UNI\CREATING VIRTUAL WORLDS\GRAPHICSTEMPLATE\CMESH.CPP
/c /ZI /JMC /nologo /W3 /WX- /diagnostics:column /sdl /Od /D _DEBUG /D _CONSOLE /D _UNICODE /D UNICODE /Gm- /EHsc /RTC1 /MDd /GS /fp:precise /permissive- /Zc:wchar_t /Zc:forScope /Zc:inline /Fo"X64\DEBUG\\" /Fd"X64\DEBUG\VC142.PDB" /Gd /TP /FC C:\USERS\THOMAS DENDLE\DOCUMENTS\UNI\CREATING VIRTUAL WORLDS\GRAPHICSTEMPLATE\CMESH.CPP
