^C:\USERS\THOMAS DENDLE\DOCUMENTS\UNI\CREATING VIRTUAL WORLDS\GRAPHICSTEMPLATE\X64\DEBUG\CCAMERA.OBJ|C:\USERS\THOMAS DENDLE\DOCUMENTS\UNI\CREATING VIRTUAL WORLDS\GRAPHICSTEMPLATE\X64\DEBUG\CLIGHT.OBJ|C:\USERS\THOMAS DENDLE\DOCUMENTS\UNI\CREATING VIRTUAL WORLDS\GRAPHICSTEMPLATE\X64\DEBUG\CMESH.OBJ|C:\USERS\THOMAS DENDLE\DOCUMENTS\UNI\CREATING VIRTUAL WORLDS\GRAPHICSTEMPLATE\X64\DEBUG\CORE.OBJ|C:\USERS\THOMAS DENDLE\DOCUMENTS\UNI\CREATING VIRTUAL WORLDS\GRAPHICSTEMPLATE\X64\DEBUG\CSCENE.OBJ|C:\USERS\THOMAS DENDLE\DOCUMENTS\UNI\CREATING VIRTUAL WORLDS\GRAPHICSTEMPLATE\X64\DEBUG\CSHADER.OBJ|C:\USERS\THOMAS DENDLE\DOCUMENTS\UNI\CREATING VIRTUAL WORLDS\GRAPHICSTEMPLATE\X64\DEBUG\CSKYBOX.OBJ|C:\USERS\THOMAS DENDLE\DOCUMENTS\UNI\CREATING VIRTUAL WORLDS\GRAPHICSTEMPLATE\X64\DEBUG\CTEXTURE.OBJ|C:\USERS\THOMAS DENDLE\DOCUMENTS\UNI\CREATING VIRTUAL WORLDS\GRAPHICSTEMPLATE\X64\DEBUG\CTRANSFORM.OBJ|C:\USERS\THOMAS DENDLE\DOCUMENTS\UNI\CREATING VIRTUAL WORLDS\GRAPHICSTEMPLATE\X64\DEBUG\MAIN.OBJ|C:\USERS\THOMAS DENDLE\DOCUMENTS\UNI\CREATING VIRTUAL WORLDS\GRAPHICSTEMPLATE\X64\DEBUG\TEXTFILE.OBJ
C:\USERS\THOMAS DENDLE\DOCUMENTS\UNI\CREATING VIRTUAL WORLDS\GRAPHICSTEMPLATE\X64\DEBUG\GRAPHICSTEMPLATE.EXE
C:\USERS\THOMAS DENDLE\DOCUMENTS\UNI\CREATING VIRTUAL WORLDS\GRAPHICSTEMPLATE\X64\DEBUG\GRAPHICSTEMPLATE.ILK
C:\USERS\THOMAS DENDLE\DOCUMENTS\UNI\CREATING VIRTUAL WORLDS\GRAPHICSTEMPLATE\X64\DEBUG\GRAPHICSTEMPLATE.PDB
